<?xml version="1.0" standalone="no"?>
<!DOCTYPE svg PUBLIC "-//W3C//DTD SVG 1.1//EN" "http://www.w3.org/Graphics/SVG/1.1/DTD/svg11.dtd" >
<svg xmlns="http://www.w3.org/2000/svg">
<metadata>Generated by IcoMoon</metadata>
<defs>
<font id="icomoon" horiz-adv-x="512">
<font-face units-per-em="512" ascent="480" descent="-32" />
<missing-glyph horiz-adv-x="512" />
<glyph unicode="&#x20;" d="" horiz-adv-x="256" />
<glyph unicode="&#xe600;" d="M182.857 77.714h36.571v-36.572h-36.572v36.572zM256 77.714h36.572v-36.572h-36.572v36.572zM146.286 114.286h36.572v-36.572h-36.572v36.572zM329.143 150.857h36.572v-36.572h-36.572v36.572zM109.715 77.714h36.572v-36.572h-36.572v36.572zM329.143 224h36.572v-36.572h-36.572v36.572zM365.714 114.286h36.572v-36.572h-36.572v36.572zM402.286 224h36.572v-36.572h-36.572v36.572zM402.286 77.714h36.572v-36.572h-36.572v36.572zM402.286 150.857h36.572v-36.572h-36.572v36.572zM329.143 77.714h36.572v-36.572h-36.572v36.572zM402.286 297.143h36.572v-36.572h-36.572v36.572zM365.714 333.714h36.572v-36.572h-36.572v36.572zM329.143 297.143h36.572v-36.572h-36.572v36.572zM219.429 114.286h36.571v-36.572h-36.572v36.572zM292.572 114.286h36.572v-36.572h-36.572v36.572zM292.572 187.428h36.572v-36.572h-36.572v36.572zM365.714 187.428h36.572v-36.572h-36.572v36.572zM365.714 260.572h36.572v-36.572h-36.572v36.572zM219.429 187.428h36.571v-36.572h-36.572v36.572zM182.857 150.857h36.571v-36.572h-36.572v36.572zM292.572 260.572h36.572v-36.572h-36.572v36.572zM256 150.857h36.572v-36.572h-36.572v36.572zM256 224h36.572v-36.572h-36.572v36.572zM402.286 370.286h36.572v-36.572h-36.572v36.572zM475.428 4.572h36.572v-36.572h-36.572v36.572zM438.857 114.286h36.572v-36.572h-36.572v36.572zM329.143 4.572h36.572v-36.572h-36.572v36.572zM438.857 187.428h36.572v-36.572h-36.572v36.572zM438.857 41.143h36.572v-36.572h-36.572v36.572zM365.714 41.143h36.572v-36.572h-36.572v36.572zM402.286 4.572h36.572v-36.572h-36.572v36.572zM475.428 77.714h36.572v-36.572h-36.572v36.572zM438.857 406.857h36.572v-36.571h-36.572v36.571zM475.428 150.857h36.572v-36.572h-36.572v36.572zM475.428 297.143h36.572v-36.572h-36.572v36.572zM475.428 443.428h36.572v-36.572h-36.572v36.572zM438.857 333.714h36.572v-36.572h-36.572v36.572zM438.857 260.572h36.572v-36.572h-36.572v36.572zM475.428 224h36.572v-36.572h-36.572v36.572zM475.428 370.286h36.572v-36.572h-36.572v36.572zM146.286 41.143h36.572v-36.572h-36.572v36.572zM36.572 4.572h36.572v-36.572h-36.572v36.572zM109.715 4.572h36.572v-36.572h-36.572v36.572zM73.143 41.143h36.572v-36.572h-36.572v36.572zM182.857 4.572h36.571v-36.572h-36.572v36.572zM219.429 41.143h36.571v-36.572h-36.572v36.572zM256 4.572h36.572v-36.572h-36.572v36.572zM73.143 41.143v36.572h36.572v36.572h36.572v36.572h36.572v36.572h36.572v36.572h36.572v36.572h36.572v36.572h36.572v36.572h36.572v36.572h36.572v36.571h36.572v36.572h36.572v36.572h-475.428v-475.428h36.572v36.572zM292.572 41.143h36.572v-36.572h-36.572v36.572z" />
<glyph unicode="&#xe601;" d="M41.837 103.644h-5.267v19.603c4.206 1.317 11.264 2.596 21.102 3.913 16.165 2.596 26.002 5.229 29.549 7.827 3.475 2.633 7.716 8.156 12.653 16.64l62.245 150.857 73.875 177.298h33.719l3.182-4.901 53.796-117.541c18.286-39.863 29.184-64.329 32.731-73.472 7.022-16.311 15.469-35.255 25.308-56.796 4.901-9.801 10.533-23.187 16.896-40.156 4.205-11.118 10.167-23.223 17.92-36.243 3.511-8.485 6.692-13.385 9.509-14.702 3.511-3.255 9.472-4.901 17.92-4.901 7.716-1.28 16.493-3.584 26.368-6.875 1.353-6.473 2.084-11.373 2.084-14.665 0-1.975 0-3.913 0-5.888-14.080 0-30.94 0.695-50.651 1.975-16.86 1.317-33.755 1.975-50.615 1.975-13.385 0-25.015 0-34.816 0l-52.736-2.925-15.836-0.988c0 7.863 0.365 14.409 1.060 19.603l34.816 6.875c9.875 1.975 15.836 3.62 17.92 4.901 2.121 2.596 3.182 5.047 3.182 7.351 0 2.304-0.731 4.717-2.121 7.315l-11.593 28.38-24.284 55.844h-119.223c-4.9-10.459-14.043-32.695-27.392-66.633-3.548-10.459-5.267-17.298-5.267-20.553 0-5.229 1.389-8.813 4.206-10.788 4.206-3.255 13.349-5.851 27.429-7.827 4.206-0.659 7.899-1.28 11.081-1.975 3.145-0.659 6.51-0.951 10.020-0.951 0.659-4.572 1.060-9.472 1.060-14.738 0-2.596-0.365-4.901-1.060-6.875-11.264 0-41.838 1.975-91.757 5.888l-12.653-1.975c-14.117-2.56-28.892-3.877-44.361-3.877zM227.511 374.016l-44.288-109.714c12.654 0 26.002-0.147 40.083-0.476 14.043-0.329 24.429-0.512 31.123-0.512 6.693 0 11.41 0 14.227 0h7.387c-5.632 15.689-13.714 35.584-24.247 59.758-9.143 20.919-17.262 37.888-24.284 50.944zM0 41.143h512v-73.143h-512v73.143z" />
<glyph unicode="&#xe602;" d="M0 480v-512h512v512h-512zM475.428 30.5c-14.080 0-30.94 4.023-50.651 5.339-16.86 1.317-33.755 5.303-50.615 5.303-13.385 0-25.015 0-34.816 0l-52.736-6.291-15.836-2.67c0 7.863 0.365 13.531 1.060 18.761l34.816 6.473c9.875 1.975 15.836 3.401 17.92 4.681 2.121 2.596 3.182 4.937 3.182 7.241 0 2.304-0.731 4.644-2.121 7.241l-11.593 23.442-24.284 50.834h-119.223c-4.937 0-14.080-27.685-27.428-61.659-3.511-10.459-5.23-14.848-5.23-18.067 0-5.229 1.389-7.607 4.206-9.582 4.206-3.219 13.349-5.193 27.428-7.168 4.206-0.659 7.899-0.988 11.081-1.683 3.145-0.659 6.51-0.768 10.020-0.768 0.695-4.572 1.060-9.399 1.060-14.628 0-2.596-0.365-4.864-1.060-6.839-11.264 0-41.838 1.975-91.757 5.888l-12.653 3.401c-14.117-2.596-28.892 1.389-44.361 1.389h-5.267v8.96c4.206 1.317 11.264 2.596 21.102 3.913 16.165 2.596 26.002 5.229 29.549 7.827 3.511 2.596 7.716 8.156 12.653 16.64l62.245 150.967 73.838 177.408h33.755l3.182-5.011 53.796-117.577c18.286-39.863 29.184-64.365 32.731-73.508 7.022-16.311 15.469-35.255 25.308-56.832 4.901-9.801 10.533-23.187 16.896-40.156 4.205-11.118 10.167-23.223 17.92-36.243 3.511-8.485 6.692-13.385 9.509-14.702 3.511-3.255 9.472-4.901 17.92-4.901 7.716-1.28 16.493-3.584 26.368-6.875 1.353-6.473 2.084-11.373 2.084-14.665 0-1.975 0-3.913 0-5.888zM227.511 300.873l-44.288-109.714c12.654 0 26.002-1.536 40.083-1.865 14.043-0.329 24.429-1.865 31.123-1.865 6.693 0 11.41 0 14.227 0h7.387c-5.632 36.572-13.714 36.974-24.247 61.148-9.143 20.882-17.262 39.241-24.284 52.297z" />
<glyph unicode="&#xe603;" d="M0 480h182.857v-182.857h-182.857v182.857zM329.143 150.857h182.857v-182.857h-182.857v182.857zM402.286 187.428v182.857h-182.857v-109.714h-109.715v-182.857h182.857v109.714z" />
<glyph unicode="&#xe604;" d="M0 480h182.857v-182.857h-182.857v182.857zM219.429 370.286v-109.714h-109.715v-182.857h292.572v292.572z" />
<glyph unicode="&#xe605;" d="M0 443.428h512v-36.572h-512v36.572zM0 370.286h512v-73.143h-512v73.143zM0 260.572h512v-109.715h-512v109.714zM0 114.286h512v-146.286h-512v146.286z" />
<glyph unicode="&#xe606;" d="M219.429 41.143h73.143v-73.143h-73.143v73.143zM0 333.714l182.857-109.714-182.857-109.714zM512 333.714l-182.857-109.714 182.857-109.714zM219.429 187.428h73.143v-73.143h-73.143v73.143zM219.429 333.714h73.143v-73.143h-73.143v73.143zM219.429 480h73.143v-73.143h-73.143v73.143z" />
<glyph unicode="&#xe607;" d="M438.857 260.572h73.143v-73.143h-73.143v73.143zM146.286-32l109.714 182.857 109.714-182.857zM146.286 480l109.714-182.857 109.714 182.857zM292.572 260.572h73.143v-73.143h-73.143v73.143zM146.286 260.572h73.143v-73.143h-73.143v73.143zM0 260.572h73.143v-73.143h-73.143v73.143z" />
<glyph unicode="&#xe608;" d="M473.6 274.798l-442.112 184.064 183.26-442.441 70.034 136.96 96.695-96.877 51.785 51.675-96.695 96.841z" />
<glyph unicode="&#xe609;" d="M109.715 370.286h292.572v-292.572h-292.572v292.572zM73.143 406.857h109.715v73.143h-182.857v-182.857h73.143zM438.857 41.143h-109.714v-73.143h182.857v182.857h-73.143z" />
<glyph unicode="&#xe60a;" d="M109.715 370.286h292.572v-292.572h-292.572v292.572zM73.143 406.857h109.715v73.143h-182.857v-182.857h73.143z" />
</font></defs></svg>